<?xml version="1.0" encoding="utf-8"?>
<!-- Generator: Adobe Illustrator 21.0.0, SVG Export Plug-In . SVG Version: 6.00 Build 0)  -->
<svg version="1.1" id="Layer_1" xmlns="http://www.w3.org/2000/svg" xmlns:xlink="http://www.w3.org/1999/xlink" x="0px" y="0px"
	 viewBox="0 0 258.1 150.6" style="enable-background:new 0 0 258.1 150.6;" xml:space="preserve">
<style type="text/css">
	.st0{fill:#0000FF;}
	.st1{fill:#FF0000;}
</style>
<rect x="118.3" y="96.8" class="st0" width="139.8" height="53.8"/>
<rect y="96.8" class="st0" width="75.3" height="53.8"/>
<rect x="118.3" class="st0" width="139.8" height="53.8"/>
<rect x="86" class="st1" width="21.5" height="150.6"/>
<rect class="st0" width="75.3" height="53.8"/>
<rect x="118.3" y="-53.8" transform="matrix(-1.836970e-16 1 -1 -1.836970e-16 204.3248 -53.7697)" class="st1" width="21.5" height="258.1"/>
</svg>
